{
    "count":51,
    "next":"https://api.rawg.io/api/platforms?key=b5d0d6eb583547aebcc9043d888d8ca2&page=2",
    "previous":null,
    "results":
        [
            {
                "id":4,
                "name":"PC",
                "slug":"pc",
                "games_count":460711,
                "image_background":"https://media.rawg.io/media/games/588/588c6bdff3d4baf66ec36b1c05b793bf.jpg",
                "image":null,
                "year_start":null,
                "year_end":null,
                "games":
                [
                    {
                        "id":3498,
                        "slug":"grand-theft-auto-v",
                        "name":"Grand Theft Auto V",
                        "added":17709
                    },
                    {
                        "id":3328,
                        "slug":"the-witcher-3-wild-hunt",
                        "name":"The Witcher 3: Wild Hunt",
                        "added":16486
                    },
                    {
                        "id":4200,
                        "slug":"portal-2",
                        "name":"Portal 2",
                        "added":15500},
                    {
                    "id":5286,
                    "slug":"tomb-raider",
                    "name":"Tomb Raider (2013)",
                    "added":13860
                    },
                    {
                        "id":5679,
                        "slug":"the-elder-scrolls-v-skyrim",
                        "name":"The Elder Scrolls V: Skyrim",
                        "added":13425},
                    {
                    "id":4291,
                    "name":"Counter-Strike: Global Offensive",
                    "added":13410
                    }
                ]
            },
            {
                "id":187,
                "name":"PlayStation 5",
                "slug":"playstation5",
                "games_count":627,
                "image_background":"https://media.rawg.io/media/games/de6/de66bc4c72b45c3bb906c85d0628112d.jpg",
                "image":null,
                "year_start":2020,
                "year_end":null,
                "games":
                    [
                        {
                            "id":3498,
                            "slug":"grand-theft-auto-v",
                            "name":"Grand Theft Auto V",
                            "added":17709
                        },
                        {
                            "id":3328,
                            "slug":"the-witcher-3-wild-hunt",
                            "name":"The Witcher 3: Wild Hunt",
                            "added":16486
                        },
                        {
                            "id":32,
                            "slug":"destiny-2",
                            "name":"Destiny 2",
                            "added":10999
                        },
                        {
                            "id":58175,
                            "slug":"god-of-war-2",
                            "name":"God of War",
                            "added":10835
                        },
                        {
                            "id":766,
                            "slug":"warframe",
                            "name":"Warframe",
                            "added":9913
                        },
                        {
                            "id":41494,
                            "slug":"cyberpunk-2077",
                            "name":"Cyberpunk 2077",
                            "added":9478
                        }
                    ]
            }
        ]
        
}